# original cornell box data

mtllib cornell_box.mtl

o floor
usemtl white
v 552.8 0.0   0.0
v 0.0   0.0   0.0
v 0.0   0.0 559.2
v 552.8 0.0 559.2

v 130.0 0.0  65.0
v  82.0 0.0 225.0
v 240.0 0.0 272.0
v 290.0 0.0 114.0

v 423.0 0.0 247.0
v 265.0 0.0 296.0
v 314.0 0.0 456.0
v 472.0 0.0 406.0

f 1 2 3 4 
#f 8 7 6 5
#f 12 11 10 9

o ceiling
usemtl white
v 552.8 548.8 0.0
v 552.8 548.8 559.2
v 0.0 548.8 559.2
v 0.0 548.8 0.0
f 13 14 15 16

o back_wall
usemtl white
v 552.8   0.0 559.2
v 0.0   0.0 559.2
v 0.0 548.8 559.2
v 552.8 548.8 559.2
f 17 18 19 20

o green_wall
usemtl green
v    0.0   0.0 559.2
v    0.0   0.0   0.0
v    0.0 548.8   0.0
v    0.0 548.8 559.2
f 21 22 23 24

o red_wall
usemtl red
v    552.8   0.0   0.0
v    552.8   0.0 559.2
v    552.8 548.8 559.2
v    552.8 548.8   0.0
f 25 26 27 28

vt 0 0
vt 1 0
vt 1 1
vt 0 1

o short_block
usemtl text

v    130.0 165.0  65.0
v     82.0 165.0 225.0
v    240.0 165.0 272.0
v    290.0 165.0 114.0
f 29/1 30/2 31/3 32/4

v    290.0   0.0 114.0
v    290.0 165.0 114.0
v    240.0 165.0 272.0
v    240.0   0.0 272.0
f 33 34 35 36

v    130.0   0.0  65.0
v    130.0 165.0  65.0
v    290.0 165.0 114.0
v    290.0   0.0 114.0
f 37 38 39 40

v     82.0   0.0 225.0
v     82.0 165.0 225.0
v    130.0 165.0  65.0
v    130.0   0.0  65.0
f 41 42 43 44

usemtl textred

v    240.0   0.0 272.0
v    240.0 165.0 272.0
v     82.0 165.0 225.0
v     82.0   0.0 225.0
f 45/1 46/2 47/3 48/4

o tall_block
usemtl white

v    423.0 330.0 247.0
v    265.0 330.0 296.0
v    314.0 330.0 456.0
v    472.0 330.0 406.0
f 49 50 51 52

v    423.0   0.0 247.0
v    423.0 330.0 247.0
v    472.0 330.0 406.0
v    472.0   0.0 406.0
f 53 54 55 56

v    472.0   0.0 406.0
v    472.0 330.0 406.0
v    314.0 330.0 456.0
v    314.0   0.0 456.0
f 57 58 59 60

v    314.0   0.0 456.0
v    314.0 330.0 456.0
v    265.0 330.0 296.0
v    265.0   0.0 296.0
f 61 62 63 64

v    265.0   0.0 296.0
v    265.0 330.0 296.0
v    423.0 330.0 247.0
v    423.0   0.0 247.0
f 65 66 67 68
